…
library("ztable")

## Welcome to package ztable ver 0.2.0

Connecting to FRED through an R package downloaded from GitHub

US GDP from Jan 1st, 1990 to today

#See https://fred.stlouisfed.org/docs/api/fred/ for FRED Data information

#See https://fred.stlouisfed.org/tags/series for series IDs
fredr(series_id = "UNRATE",
  observation_start = as.Date("1990-01-01"))

## # A tibble: 367 x 3
##    date       series_id value
##    <date>     <chr>     <dbl>
##  1 1990-01-01 UNRATE      5.4
##  2 1990-02-01 UNRATE      5.3
##  3 1990-03-01 UNRATE      5.2
##  4 1990-04-01 UNRATE      5.4
##  5 1990-05-01 UNRATE      5.4
##  6 1990-06-01 UNRATE      5.2
##  7 1990-07-01 UNRATE      5.5
##  8 1990-08-01 UNRATE      5.7
##  9 1990-09-01 UNRATE      5.9
## 10 1990-10-01 UNRATE      5.9
## # … with 357 more rows
…
